A multiverse analysis of the efficiency of physical visualizations
…
M$df <- ~ df %>%
  mutate( ci = branch( confidence_interval, 0.5, 0.68, 0.8, 0.9, 0.95, 0.99, 0.999 )) %>%
  mutate( fit = branch(bootstrap,
                       "t-dist" ~ map2(data, ci, ~ tidy(t.test(.x$duration, conf.level = .y)) ),
                       "bca" ~ map2(data, ci, ~ boot(data = .x$duration, statistic = samplemean, R = 5000) %>%
                              tidy( conf.int = TRUE, conf.method = "bca", conf.level = .y) %>%
                              rename(estimate = statistic))
        )) %>%
  select(-data) %>%
  unnest( fit )

multiverse_table(M)

## # A tibble: 28 x 7
##    index data_transform confidence_inte… bootstrap .parameter_assi… .code
##    <int> <chr>          <chr>            <chr>     <list>           <lis>
##  1     1 none           0.5              t-dist    <named list [3]> <lan…
##  2     2 log            0.5              t-dist    <named list [3]> <lan…
##  3     3 none           0.68             t-dist    <named list [3]> <lan…
##  4     4 log            0.68             t-dist    <named list [3]> <lan…
##  5     5 none           0.8              t-dist    <named list [3]> <lan…
##  6     6 log            0.8              t-dist    <named list [3]> <lan…
##  7     7 none           0.9              t-dist    <named list [3]> <lan…
##  8     8 log            0.9              t-dist    <named list [3]> <lan…
##  9     9 none           0.95             t-dist    <named list [3]> <lan…
## 10    10 log            0.95             t-dist    <named list [3]> <lan…
## # … with 18 more rows, and 1 more variable: .results <list>
…
